Postcode,Suburb,Lat,Lon
1493,Hurstville,-33.975869,151.088939
2000,Sydney,-33.867139,151.207114
2144,Auburn,-33.849322,151.033421
2210,Riverwood,-33.949859,151.052469
2315,Fingal Bay,-32.748113,152.170141
2427,Harrington,-31.872153,152.689811
2535,Back Forest,-34.853655,150.678507
2627,Jindabyne,-36.415074,148.618871
2830,Benolong,-32.413736,148.63938
3000,Melbourne,-37.814563,144.970267
3072,Preston,-37.738736,145.000515
3233,Petticoat Creek,-38.718949,143.725959
3409,Douglas,-37.842988,144.892631
3500,Mildura,-34.181714,142.163072
3658,Broadford,-37.203001,145.050171
3809,Officer,-38.063056,145.40958
3887,Nowa Nowa,-37.733238,148.089423
3971,Langsborough,-38.651487,146.675098
4000,Brisbane,-27.46758,153.027892
4109,Robertson,-27.565733,153.057213
4207,Logan Village,-27.767054,153.116881
4305,Ipswich,-27.614604,152.760876
4407,Cattle Creek,-27.6483,150.836678
4510,Caboolture,-27.085007,152.951707
4610,Booie,-26.498426,151.935421
4700,Rockhampton,-23.378941,150.512323
4810,Townsville,-19.267358,146.80654
4870,Cairns,-16.925397,145.775178
5000,Adelaide,-34.92577,138.599732
